<svg width="1440" height="516" viewBox="0 0 1440 516" fill="none" xmlns="http://www.w3.org/2000/svg">
<path d="M1679 -52.5C1679 22.1565 1654.19 96.0819 1606 165.056C1557.81 234.029 1487.17 296.7 1398.12 349.49C1309.06 402.28 1203.34 444.156 1086.99 472.726C970.642 501.295 845.938 516 720 516C594.062 516 469.358 501.295 353.007 472.726C236.655 444.156 130.936 402.28 41.8846 349.49C-47.1668 296.7 -117.806 234.029 -166 165.055C-214.195 96.0819 -239 22.1564 -239 -52.5L720 -52.5H1679Z" fill="#B2115E"/>
</svg>
